module mvc

go 1.16

require (
	github.com/jinzhu/gorm v1.9.16 // indirect
	github.com/labstack/echo/v4 v4.5.0 // indirect
	gorm.io/driver/mysql v1.1.2 // indirect
	gorm.io/gorm v1.21.13 // indirect
)
